Objective : 1767
 time(s) : 15.81
Route : 
0 0 38 72 54 9 55 41 25 46 71 14 48 18 79 28 52 0 49 73 36 
67 66 53 42 0 0 58 32 4 22 45 50 76 70 51 77 3 39 60 74 
13 0 0 29 20 75 57 19 26 35 65 69 56 47 15 33 64 0 12 44 
5 23 11 63 10 0 30 78 61 43 16 68 8 37 2 34 17 31 27 
