
Objective : 878.462
 time(s) : 293.707
Route : 
0 13 87 42 14 44 38 43 15 57 2 58 53 0 52 7 82 48 47 36 46 
8 45 83 18 89 0 97 37 98 100 91 85 61 16 86 17 84 5 60 0 
26 4 25 55 54 24 29 68 80 12 0 31 70 30 20 66 65 71 35 9 
51 0 40 73 74 22 41 23 67 39 56 75 72 21 0 10 32 90 63 64 
49 19 11 62 88 0 0 6 96 99 93 59 92 95 94 0 28 76 77 3 

 CONFIGURATION 
Iteration 3000
Non Improve 10000000
alpha 0.999
Initial Temp 15
Max Temp 0.001
SEED 1427966745

